1/2,half
1/3,third
1/4,quarter
1337,elite
1st,first
2nd,second
3rd,third
4th,fourth
afaicr,as far as i can recall
afaics,as far as i can see
afaict,as far as i can recall tell
afaik,as far as i know
afk,away from keyboard
anfscd,and now for something completely different
appt,appointment
asap,as soon as possible
asl,age sex location
ateotd,at the end of the day
atm,at the moment
awol,absent without official leave
ayb,all your base are belong to us
aybabtu,all your base are belong to us
b&,banned
b2b,business to business
bbiab,be back in a bit
bbl,be back later
bbs,be back later soon
bcnu,be seeing you
bofh,bastard operator from hell
brb,be right back
bsod,blue screen of death
btdt,been there done that
btw,by the way
cu,see you
dftt,do not feed the trolls
dgaf,do not give a fuck
diaf,die in a fire
dilligad,does it look like i give a damn
dilligaf,does it look like i give a fuck
dilligas,does it look like i give a shit
dnd,do not disturb
doa,dead on arrival
eof,end of file
eol,end of life
eom,end of message
eta,estimated time of arrival
etc,ecetera
faq,frequently asked questions
fav,favorite
ffs,for fucks sake
fmcdh,from my cold dead hands
foad,fuck off and die
foaf,friend of a friend
ftl,for the loss
ftw,for the win
fu,fuck you
fubar,fucked up beyond all repairpronounced "foo-bar")
fud,fear uncertainty and doubt
fwiw,for what it is worth
fyi,for your information
g2g,got to go
gbtw,get back to work
gf,girlfriend
gfu,good for you
gfy,go fuck yourself
gg,good game
gj,good job
gmta,great minds think alike
gr8,great
gratz,congratulations
gtfo,get the fuck out
gtg,got to go
h4x0r,hacker
h8,hate
haxor,hacker
hd,high definition
hdd,hard disk drive
hf,have fun
hth,hope this helps
hv,have
ianal,i am not a lawyer
ibtl,in before the lock
idc,i do not care
idk,i do not know
iirc,if i recall correctly
iiuc,if i understand correctly
imao,in my arrogant opinion
imho,in my humble opinion
imnsho,in my not so humble opinion
imo,in my opinion
iono,i do not know
iow,in other words
irc,internet relay chat
irl,in real life
itym,i think you mean
iwsn,i want sex now
iykwim,if you know what i mean
j/k,just kidding
jfgi,just fucking google it
jk,just kidding
k,okay
kiss,keep it simple stupid.
kk,okay
kos,kill on sight
ks(ing),kill-steal(ing)
kthx,ok, thanks
kthxbai or kthxbye,ok, thanks, goodbye, used either to cut short a conversation or to express displeasure with being cut short
l2p,learn to play
l33t,elite
l8er,later
l8r,later
leet,elite
lfg,looking for group
lfm,looking for more
lmao,laughing my ass off
lmbo,laughing my butt off
lmfao,laughing my frigging ass off
lmirl,let us meet in real life.
lmk,let me know
lol,laugh out loud
ltns,long time no see
luv,love
luvs,loves
lvl,level
m8,mate
mmo,massive multi-player online role playing game
mmofps,massive multi-player online first person shooter
mmorpg,massive multi-player online role playing game
motd,message of the day
msg,message
mtfbwy,may the force be with you
myob,mind your own business
n00b,newbie
ne1,anyone
nfi,no fucking idea
nifoc,naked in front of computer
noob,newbie
np,no problem
nsfw,not safe for work
nvm,nevermind
nvmd,nevermind
nyc,new york city
ofn,old fucking news
oic,oh, i see
omfg,oh my fucking god
omg,oh my god
omw,on my way
op,original poster
orly,oh really
os,operating system
ot,off topic
otoh,on the other hand
otp,on the phone
paw,parents are watching
pebcak,problem exists between keyboard and chair
pebkac,problem exists between keyboard and chair
pita,pain in the ass
pleaze,please
plmk,please let me know
pls,please
plz,please
pmsl,pissing myself laughing
pots,plain old telephone service
pov,point of view
ppl,people
pr0n,porn
ptkfgs,punch the keys for god's sake
pw,persistent world
pwned,owned
qft,quoted for truth
rehi,hello again
rl,real life
rofl,rolling on floor laughing
roflmao,rolling on floor laughing my ass off
roflol,rolling on floor laughing out loud
rotfl,rolling on the floor laughing
rotflmao,rolling on the floor laughing my ass off
rotflol,rolling on the floor laughing out loud
rsn,real soon now
rtfm,read the fucking manual
rtm,read the manual
scnr,sorry could not resist
sk8,skate
sk8r,skater
smh,shaking my head
snafu,situation normal all fucked up
sohf,sense of humor failure
srsly,seriously
stfu,shut the fuck up
stfw,search the fucking web
sumbdy,somebody
t2ul,talk to you later
t2yl,talk to you later
tanstaafl,there ain't no such thing as a free lunch
tbf,time between failures
tbh,to be honest
tg,that is great
tgif,thank god it is friday
thnx,thanks
thru,through
tht,that
thx,thanks
tia,thanks in advance
tmi,too much information
todo,to do
tos,terms of service
ttbomk,to the best of my knowledge
ttfn,ta ta for now
ttul,talk to you later
ttyl,talk to you later
ttytt,to tell you the truth
twimc,to whom it may concern
tx,thanks
ty,thank you
tyt,take your time
tyvm,thank you very much
u,you
ur,your
ure,you are
utfse,use the fucking search engine
w/,with
w/e,whatever
w/o,without
w8,wait
wb,welcome back
wrt,with regard to
wtb,want to buy
wtf,what the fuck
wtg,way to go
wth,what the hell
wts,want to sell
wtt,want to trade
wubu2,what have you been up to
wug,what you got
wuu2,what are you up to
wysiwyg,what you see is what you get
yarly,yeah really
yhbt,you have been trolled
ykw,you know what
ymmv,your mileage may vary
ytmnd,you are the man now dog
yw,you are welcome
zomg,oh my god
